Vishal Katti - Programming with R {dplyr} - As I Understand It!!
…
OR Condition

To create an OR condition, the expression must be a single string separated by pipe ‘|’ as in example below.

Code
my_filter_criteria_with_OR <- c("sales > 8000 | sales < 50", "year > 2010")
my_filter_strings(txhousing, my_filter_criteria_with_OR)

Filter Condition: (sales > 8000 | sales < 50) & (year > 2010)

# A tibble: 315 x 9
   city         year month sales  volume median listings inventory  date
   <chr>       <int> <int> <dbl>   <dbl>  <dbl>    <dbl>     <dbl> <dbl>
 1 Brownsville  2011     1    48 4974408  83300      784      12.6 2011 
 2 Brownsville  2011     2    47 5558575 101400      776      12.7 2011.
 3 Brownsville  2011     7    47 4807019  91200      749      13.1 2012.
 4 Brownsville  2011    12    39 4203440  86800      726      12.4 2012.
 5 Brownsville  2012     1    43 3892348  85000      791      13.6 2012 
 6 Brownsville  2012     3    27 2976148  93800      734      13.3 2012.
 7 Brownsville  2012    11    41 5115393  99000      807      14   2013.
 8 Brownsville  2013    11    38 4824930 108000      859      13.4 2014.
 9 Brownsville  2015     1    41 5400796  97000      733      10.7 2015 
10 Galveston    2011     1    43 8882961 170000     1015      13.7 2011 
# ... with 305 more rows
…
Using these 2 functions, we can now create multiple summary tables

Code
small_df_with_date_cols <- small_df %>% 
  create_ymq(date_col = date)

# Annual Sales per city
small_df_with_date_cols %>% 
  tx_summary(grp_col = Year, sum_col = sales)

# A tibble: 736 x 3
   city     Year total_sales
   <chr>   <dbl>       <dbl>
 1 Abilene  2000        1375
 2 Abilene  2001        1431
 3 Abilene  2002        1516
 4 Abilene  2003        1632
 5 Abilene  2004        1830
 6 Abilene  2005        1977
 7 Abilene  2006        1997
 8 Abilene  2007        2003
 9 Abilene  2008        1651
10 Abilene  2009        1634
# ... with 726 more rows

Code
# Half Yearly volumes per city
small_df_with_date_cols %>% 
  tx_summary(grp_col = yHalf, sum_col = volume)

# A tibble: 1,472 x 3
   city    yHalf total_volume
   <chr>   <dbl>        <dbl>
 1 Abilene 2000.     55400000
 2 Abilene 2000.     53175000
 3 Abilene 2001.     55795000
 4 Abilene 2001.     58570000
 5 Abilene 2002.     55305000
 6 Abilene 2002.     63370000
 7 Abilene 2003.     58175000
 8 Abilene 2003.     77500000
 9 Abilene 2004.     74205000
10 Abilene 2004.     85465000
# ... with 1,462 more rows

Code
# Quarterly Sales per city
small_df_with_date_cols %>% 
  tx_summary(grp_col = yQtr, sum_col = sales)

# A tibble: 2,898 x 3
   city     yQtr total_sales
   <chr>   <dbl>       <dbl>
 1 Abilene 2000.         300
 2 Abilene 2000.         395
 3 Abilene 2000.         387
 4 Abilene 2000.         293
 5 Abilene 2001.         305
 6 Abilene 2001.         394
 7 Abilene 2001.         401
 8 Abilene 2001.         331
 9 Abilene 2002.         295
10 Abilene 2002.         425
# ... with 2,888 more rows

Code
# Monthly Volumes per city
small_df_with_date_cols %>% 
  tx_summary(grp_col = yMonth, sum_col = volume)

# A tibble: 8,602 x 3
   city    yMonth total_volume
   <chr>    <dbl>        <dbl>
 1 Abilene  2000.      5380000
 2 Abilene  2000.      6505000
 3 Abilene  2000.      9285000
 4 Abilene  2000.      9730000
 5 Abilene  2000.     10590000
 6 Abilene  2000.     13910000
 7 Abilene  2000.     12635000
 8 Abilene  2000.     10710000
 9 Abilene  2000.      7615000
10 Abilene  2000.      7040000
# ... with 8,592 more rows
…
